{
  "signature.target": "echo",
  "jedi.enable":false,
  "jedi.startupMessage": true,
  "jedi.markupKindPreferred": "plaintext",
  "jedi.trace.server": true,
  "jedi.jediSettings.autoImportModules": [],
  "jedi.jediSettings.caseInsensitiveCompletion": true,
  "jedi.jediSettings.debug": false,
  "jedi.executable.command": "jedi-language-server",
  "jedi.executable.args": [],
  "jedi.completion.disableSnippets": false,
  "jedi.completion.resolveEagerly": false,
  "jedi.completion.ignorePatterns": [],
  "jedi.diagnostics.enable": true,
  "jedi.diagnostics.didOpen": true,
  "jedi.diagnostics.didChange": true,
  "jedi.diagnostics.didSave": true,
  "jedi.workspace.extraPaths": [],
  "jedi.workspace.symbols.maxSymbols": 20,
  "jedi.workspace.symbols.ignoreFolders": [
    ".nox",
    ".tox",
    ".venv",
    "__pycache__",
    "venv"
  ],
 "diagnostic.showUnused": false,
 "languageserver": {
    "ccls": {
      "command": "ccls",
      "filetypes": ["c", "cpp", "cuda", "objc", "objcpp"],
      "rootPatterns": [".ccls-root", "compile_commands.json"],
      "initializationOptions": {
         "cache": {
           "directory": "/tmp/ccls-cache"
         }
       }
    }
  },
  "clangd.path": "~/.config/coc/extensions/coc-clangd-data/install/16.0.2/clangd_16.0.2/bin/clangd"
}

